<?xml version="1.0" encoding="UTF-8"?>
<session version="1.0">
<refactoring comment="Rename compilation unit &apos;Chantier_Barda.App2.java&apos; to &apos;HttpQuerrier.java&apos;&#x0D;&#x0A;- Original project: &apos;GeneTonic&apos;&#x0D;&#x0A;- Original element: &apos;Chantier_Barda.App2.java&apos;&#x0D;&#x0A;- Renamed element: &apos;Chantier_Barda.HttpQuerrier.java&apos;" description="Rename compilation unit &apos;App2.java&apos;" flags="2" id="org.eclipse.jdt.ui.rename.compilationunit" input="/src&lt;Chantier_Barda{App2.java" name="HttpQuerrier.java" references="false" stamp="1559828792541" version="1.0"/>
</session>